{
  "Impresoras": [
    {
      "Tipo": "General_Adulto",
      "NombreImpresora": "ADULTO",
      "Nombre": "Adulto",
      "IP": "10.6.169.77"
    },
    {
      "Tipo": "General_Pediatrico",
      "NombreImpresora": "PEDIATRICO",
      "Nombre": "Pedíatrico",
      "IP": "10.6.169.78"
    },
    {
      "Tipo": "GinecoObtetrico_Adulto",
      "NombreImpresora": "ZEBRA GINE",
      "Nombre": "Gineco-Obtétrico",
      "IP": "10.6.165.250"
    }
  ]
}
