{
  "urlWebApi": "http://10.6.180.235/webapi/api/",
  //"urlWebApi": "http://10.6.180.236/webapi/api/",
  //"urlWebApi": "http://10.6.180.237/webapi/api/",
  //"urlWebApi": "http://10.6.180.238/webapi/api/",
  //"urlWebApi": "http://localhost:3099/Api/",
  "RutasAcceso": [
    {
      "Ruta": "/Vista/Inicio.aspx",
      "PerfilAcceso": [ 1, 2, 3, 4, 5, 6, 7, 8, 9, 10, 11, 12, 13, 14, 15, 16, 17, 18, 19,20, 21, 22, 23, 24, 25 ]
    },
    {
      "Ruta": "/Vista/ModuloExamenes/BandejaExamenes.aspx",
      "PerfilAcceso": [ 14 ]
    },
    {
      "Ruta": "/Vista/ModuloExamenes/NuevaSolicitud.aspx",
      "PerfilAcceso": [ 14 ]
    },
    {
      "Ruta": "/Vista/ModuloHOS/BandejaHOS.aspx",
      "PerfilAcceso": [ 1, 5, 7, 12, 13, 15, 16, 24 ]
    },
    {
      "Ruta": "/Vista/ModuloHOS/NuevaHojaEnfermeria.aspx",
      "PerfilAcceso": [ 1, 5, 7, 12, 13, 15, 16, 24 ] // revisar
    },
    {
      "Ruta": "/Vista/ModuloHOS/ImprimirHojaEnfermeria.aspx",
      "PerfilAcceso": [ 1, 5, 7, 12, 13, 15, 16, 24 ]
    },
    {
      "Ruta": "/Vista/ModuloHOS/ImpresionHojaEvolucion.aspx",
      "PerfilAcceso": [ 1, 5, 7, 12, 15, 24 ]
    },
    {
      "Ruta": "/Vista/ModuloHOS/ImprimirFormularioAdmision.aspx",
      "PerfilAcceso": [ 1, 5, 7, 12, 13, 15, 16, 24 ]
    },
    {
      "Ruta": "/Vista/ModuloHOS/ImprimirIngresoMedico.aspx",
      "PerfilAcceso": [ 1, 5, 7, 12, 15, 24 ]
    },
    {
      "Ruta": "/Vista/ModuloHOS/NuevaHojaEvolucionHOS.aspx",
      "PerfilAcceso": [ 1, 7 ]
    },
    {
      "Ruta": "/Vista/ModuloHOS/NuevoFormularioAdmision.aspx",
      "PerfilAcceso": [ 5, 7, 13, 16, 24 ]
    },
    {
      "Ruta": "/Vista/ModuloHOS/NuevoIngresoMedico.aspx",
      "PerfilAcceso": [ 1, 7 ]
    },
    {
      "Ruta": "/Vista/ModuloHOS/VistaMapaCamas.aspx",
      "PerfilAcceso": [ 5, 7, 15, 24 ]
    },
    {
      "Ruta": "/Vista/ModuloUrgencia/VistaMapaCamasUrgencia.aspx",
      "PerfilAcceso": [ 1, 16, 21, 22, 23, 25 ]
    },
    {
      "Ruta": "/Vista/ModuloIC/BandejaIC.aspx",
      "PerfilAcceso": [ 1, 2, 3, 7, 8, 9, 10 ]
    },
    {
      "Ruta": "/Vista/ModuloIC/ImprimirIC.aspx",
      "PerfilAcceso": [ 1, 2, 3, 7, 8, 9, 10 ]
    },
    {
      "Ruta": "/Vista/ModuloIC/NuevoIC.aspx",
      "PerfilAcceso": [ 1, 7, 10 ]
    },
    {
      "Ruta": "/Vista/ModuloIPD/BandejaIPD.aspx",
      "PerfilAcceso": [ 1, 2, 7, 8, 9, 10 ]
    },
    {
      "Ruta": "/Vista/ModuloIPD/ImprimirIPD.aspx",
      "PerfilAcceso": [ 1, 2, 7, 8, 9, 10 ]
    },
    {
      "Ruta": "/Vista/ModuloIPD/NuevoIPD.aspx",
      "PerfilAcceso": [ 1, 7 ]
    },
    {
      "Ruta": "/Vista/ModuloPaciente/BandejaPAC.aspx",
      "PerfilAcceso": [ 1, 2, 3, 4, 5, 6, 7, 8, 9, 10, 11, 12, 13, 14, 15, 16, 17, 18, 19,20, 21, 22, 23, 24, 25 ]
    },
    {
      "Ruta": "/Vista/ModuloPaciente/ImprimirCaratulaFicha.aspx",
      "PerfilAcceso": [ 14 ]
    },
    {
      "Ruta": "/Vista/ModuloPaciente/Reporte.aspx",
      "PerfilAcceso": [ 7 ]
    },
    {
      "Ruta": "/Vista/ModuloPaciente/SolicitudFicha.aspx",
      "PerfilAcceso": [ 14 ]
    },
    {
      "Ruta": "/Vista/ModuloUrgencia/Reporte.aspx",
      "PerfilAcceso": [ 1, 16, 17, 18, 21, 22, 23 ]
    },
    {
      "Ruta": "/Vista/ModuloUrgencia/BandejaUrgencia.aspx",
      "PerfilAcceso": [ 1, 16, 17, 18, 21, 22, 23, 25 ]
    },
    {
      "Ruta": "/Vista/ModuloUrgencia/BuscadorGeneral.aspx",
      "PerfilAcceso": [ 1, 16, 17, 18, 21, 22, 23, 25 ]
    },
    {
      "Ruta": "/Vista/ModuloUrgencia/DashboardUrgencia.aspx",
      "PerfilAcceso": [ 1, 16, 17, 18, 21, 22, 23, 25 ]
    },
    {
      "Ruta": "/Vista/ModuloUrgencia/ImprimirDAU.aspx",
      "PerfilAcceso": [ 1, 16, 17, 18, 21, 22, 23, 25 ]
    },
    {
      "Ruta": "/Vista/ModuloUrgencia/NuevoIngreso.aspx",
      "PerfilAcceso": [ 1, 16, 21, 22, 23, 25 ]
    },
    {
      "Ruta": "/Vista/ModuloExamenes/ImprimirExamenesLaboratorio.aspx",
      "PerfilAcceso": [ 1, 16, 17, 18, 21, 22, 23, 25 ]
    },
    {
      "Ruta": "/Vista/CambioContraseņa.aspx",
      "PerfilAcceso": [ 1, 2, 3, 4, 5, 6, 7, 8, 9, 10, 11, 12, 13, 14, 15, 16, 17, 18, 19, 21, 22, 23, 24, 25 ]
    }
  ]
}
